/Users/osmanegretli/IdeaProjects/ApiTestAutomation-GitRepo/src/test/java/resources/APIResources.java
/Users/osmanegretli/IdeaProjects/ApiTestAutomation-GitRepo/src/test/java/stepDefinitions/StepDefinition.java
/Users/osmanegretli/IdeaProjects/ApiTestAutomation-GitRepo/src/test/java/stepDefinitions/Hooks.java
/Users/osmanegretli/IdeaProjects/ApiTestAutomation-GitRepo/src/test/java/cucumber/Options/TestRunner.java
/Users/osmanegretli/IdeaProjects/ApiTestAutomation-GitRepo/src/test/java/resources/Utils.java
/Users/osmanegretli/IdeaProjects/ApiTestAutomation-GitRepo/src/test/java/resources/TestDataBuilder.java
